<svg width="95" height="56" viewBox="0 0 95 56" fill="#F33540" xmlns="http://www.w3.org/2000/svg">
<path d="M71.7722 4.13916L71.6851 5.30855C71.6723 5.46737 71.3688 9.24836 69.1298 13.6672C67.2086 17.4571 63.4698 22.3934 56.4111 25.1677C55.8604 25.3854 55.2887 25.5886 54.6961 25.7773L54.0352 23.7024C55.6944 23.1803 57.2927 22.4812 58.8024 21.6172C62.4003 19.5397 65.1977 16.5746 67.1484 12.7591C68.1834 10.7276 68.921 8.55791 69.3386 6.31656H61.3078V4.13916H71.7722Z" fill="#BF121C"/>
<path opacity="0.1" d="M55.5455 25.1688C62.6029 22.3944 66.343 17.4592 68.263 13.6691C70.5019 9.25005 70.8067 5.47146 70.8183 5.31007L70.9054 4.14062H71.8019L71.7148 5.31007C71.7033 5.4689 71.3985 9.25005 69.1596 13.6691C67.2383 17.4592 63.4995 22.3944 56.4421 25.1688C55.8913 25.3866 55.3192 25.5902 54.7258 25.7798L54.6387 25.507C54.9478 25.3968 55.2501 25.2841 55.5455 25.1688Z" fill="white"/>
<path d="M41.4168 23.7024L40.7559 25.7773C40.1624 25.5878 39.5903 25.3841 39.0396 25.1664C31.9821 22.3921 28.2421 17.4571 26.3221 13.6672C24.0832 9.24836 23.7783 5.46993 23.7668 5.30855L23.6797 4.13916H34.1391V6.31656H26.1069C26.5267 8.55819 27.2665 10.7279 28.3035 12.7591C30.2543 16.5746 33.0503 19.5397 36.6482 21.616C38.1581 22.4808 39.7569 23.1803 41.4168 23.7024Z" fill="#BF121C"/>
<path opacity="0.1" d="M39.9029 25.1688C32.8455 22.3944 29.1054 17.4592 27.1854 13.6691C24.9465 9.25005 24.6417 5.47146 24.6302 5.31007L24.5431 4.14062H23.6465L23.7336 5.31007C23.7451 5.4689 24.0499 9.25005 26.2889 13.6691C28.2101 17.4592 31.9489 22.3944 39.0063 25.1688C39.5571 25.3866 40.1292 25.5902 40.7227 25.7798L40.8098 25.507C40.5015 25.3968 40.1992 25.2841 39.9029 25.1688Z" fill="white"/>
<path d="M59.8082 43.7612V55.5029H35.6426V43.7612L36.4111 42.7365C44.2422 39.957 45.8291 32.7086 46.1455 29.8407C46.1926 29.4444 46.2195 29.046 46.2262 28.647H49.2144C49.2211 29.046 49.248 29.4444 49.2951 29.8407C49.6166 32.7086 51.2035 39.9596 59.0295 42.7365L59.8082 43.7612Z" fill="#F33540"/>
<path opacity="0.1" d="M59.8082 43.7603H35.6426V45.2329H59.8082V43.7603Z" fill="black"/>
<path opacity="0.1" d="M37.6919 42.7365C45.523 39.957 47.11 32.7086 47.4263 29.8407C47.4734 29.4444 47.5003 29.046 47.507 28.647H46.2262C46.2195 29.046 46.1926 29.4444 46.1455 29.8407C45.824 32.7086 44.237 39.9596 36.4111 42.7365L35.6426 43.7612V55.5029H36.9234V43.7612L37.6919 42.7365Z" fill="white"/>
<path opacity="0.1" d="M31.9727 4.13916H34.1398V6.31641H32.1648C32.0871 5.5992 32.023 4.87345 31.9727 4.13916Z" fill="black"/>
<path opacity="0.1" d="M41.417 23.7018L40.7561 25.7769C40.1626 25.5873 39.5905 25.3836 39.0398 25.1659C38.1338 24.0594 37.3332 22.8707 36.6484 21.6152C38.1583 22.4801 39.7571 23.1797 41.417 23.7018Z" fill="black"/>
<path opacity="0.1" d="M54.0332 23.7022C55.6924 23.18 57.2907 22.4808 58.8005 21.6167C58.1154 22.8725 57.3148 24.0617 56.4092 25.169C55.8584 25.3868 55.2867 25.5901 54.6941 25.7788L54.0332 23.7022Z" fill="black"/>
<path opacity="0.1" d="M63.4764 4.13916C63.4261 4.87345 63.362 5.5992 63.2843 6.31641H61.3105V4.13916H63.4764Z" fill="black"/>
<path opacity="0.1" d="M49.3 29.8406C48.2598 30.0421 47.1906 30.0421 46.1504 29.8406C46.1975 29.4443 46.2244 29.0459 46.2311 28.647H49.2193C49.226 29.0459 49.2529 29.4443 49.3 29.8406Z" fill="black"/>
<path d="M32.2285 0.532715C32.2836 16.6787 39.2001 29.7354 47.7267 29.7354C56.2532 29.7354 63.1685 16.6787 63.2249 0.532715H32.2285Z" fill="#F33540"/>
<path opacity="0.1" d="M34.9823 0.532715H32.2285C32.2836 16.6787 39.2001 29.7354 47.7267 29.7354C48.1881 29.7345 48.6486 29.6955 49.1036 29.6188C41.2213 28.3021 35.0348 15.8001 34.9823 0.532715Z" fill="white"/>
<path d="M55.9429 48.2549H39.5059V52.481H55.9429V48.2549Z" fill="#BF121C"/>
<path opacity="0.1" d="M40.2744 48.8312H55.9429V48.2549H39.5059V52.481H40.2744V48.8312Z" fill="white"/>
<path d="M49.4965 6.91191V20.2119H46.4185V9.38191H43.7585V6.91191H49.4965Z" fill="white"/>
<path d="M9.9481 20.0727C9.9481 20.0727 10.7074 17.6721 8.81922 15.4244C6.92833 13.1796 4.38161 13.0019 4.38161 13.0019C4.38161 13.0019 3.56461 15.8304 5.40698 18.0189C7.24832 20.2097 9.9481 20.0727 9.9481 20.0727Z" fill="#F33540"/>
<path d="M14.4704 19.9379C14.4704 19.9379 16.9243 18.8024 17.5391 16.005C18.1546 13.2093 16.1168 11.088 16.1168 11.088C16.1168 11.088 13.9452 12.4312 13.3128 15.3019C12.6815 18.1703 14.4704 19.9379 14.4704 19.9379Z" fill="#F33540"/>
<path d="M15.8125 22.8471C15.5604 25.7751 17.564 27.2969 17.564 27.2969C17.564 27.2969 19.8501 25.8478 20.0952 22.9967C20.3375 20.1428 18.0419 18.3056 18.0419 18.3056C18.0419 18.3056 16.0646 19.9191 15.8125 22.8471Z" fill="#F33540"/>
<path d="M22.2628 22.7651C22.2628 22.7651 20.4454 24.561 20.4686 27.4971C20.4935 30.4381 22.6281 31.7631 22.6281 31.7631C22.6281 31.7631 24.7657 30.107 24.7431 27.2431C24.7189 24.3798 22.2628 22.7651 22.2628 22.7651Z" fill="#F33540"/>
<path d="M29.1012 35.7654C29.1012 35.7654 30.6737 33.5602 29.8298 30.8247C28.9836 28.0882 26.1662 27.2529 26.1662 27.2529C26.1662 27.2529 24.9416 29.4967 25.808 32.3037C26.6755 35.1085 29.1012 35.7654 29.1012 35.7654Z" fill="#F33540"/>
<path d="M11.362 13.8948C11.362 13.8948 13.3237 12.3201 12.9959 9.40133C12.6698 6.48192 10.6513 4.91708 10.6513 4.91708C10.6513 4.91708 8.40641 6.81543 8.72482 9.66341C9.04426 12.5092 11.362 13.8948 11.362 13.8948Z" fill="#F33540"/>
<path d="M12.0264 25.769C12.0264 25.769 12.0434 23.2516 9.57721 21.6651C7.10712 20.0783 4.62122 20.6595 4.62122 20.6595C4.62122 20.6595 4.6737 23.6023 7.07925 25.1498C9.48541 26.6991 12.0264 25.769 12.0264 25.769Z" fill="#F33540"/>
<path d="M16.0201 30.933C16.0201 30.933 15.4766 28.4772 12.7187 27.4791C9.95696 26.4805 7.66101 27.601 7.66101 27.601C7.66101 27.601 8.36529 30.4576 11.0546 31.4309C13.7466 32.4013 16.0201 30.933 16.0201 30.933Z" fill="#F33540"/>
<path d="M20.6155 34.7333C20.6155 34.7333 19.3575 32.5568 16.4227 32.4426C13.485 32.3257 11.6356 34.0863 11.6356 34.0863C11.6356 34.0863 13.1735 36.5936 16.0345 36.709C18.8936 36.8195 20.6155 34.7333 20.6155 34.7333Z" fill="#F33540"/>
<path d="M22.5832 36.3068C19.6544 36.542 18.026 38.5095 18.026 38.5095C18.026 38.5095 19.8514 40.8139 22.7049 40.586C25.5617 40.3569 27.0205 38.0812 27.0205 38.0812C27.0205 38.0812 25.5113 36.07 22.5832 36.3068Z" fill="#F33540"/>
<path d="M12.2052 15.422L10.8141 15.2763C10.7995 15.4284 9.47934 30.5655 31.8637 38.8681L32.3483 37.5546C11.0355 29.6474 12.1466 15.9988 12.2052 15.422Z" fill="#F33540"/>
<path d="M84.2838 18.9911C84.2838 18.9911 83.5498 16.5812 85.4645 14.357C87.3783 12.1306 89.9289 11.9824 89.9289 11.9824C89.9289 11.9824 90.7131 14.818 88.8452 16.9873C86.9823 19.1585 84.2838 18.9911 84.2838 18.9911Z" fill="#F33540"/>
<path d="M79.7636 18.8054C79.7636 18.8054 77.323 17.6404 76.7375 14.8367C76.1535 12.0336 78.2153 9.93508 78.2153 9.93508C78.2153 9.93508 80.3719 11.303 80.9742 14.1802C81.5726 17.0578 79.7636 18.8054 79.7636 18.8054Z" fill="#F33540"/>
<path d="M78.3897 21.6961C78.6088 24.6267 76.588 26.1257 76.588 26.1257C76.588 26.1257 74.3179 24.6509 74.1033 21.7966C73.8948 18.9409 76.2097 17.1291 76.2097 17.1291C76.2097 17.1291 78.17 18.7671 78.3897 21.6961Z" fill="#F33540"/>
<path d="M71.9391 21.5415C71.9391 21.5415 73.7354 23.3557 73.6789 26.297C73.6215 29.2359 71.4701 30.5361 71.4701 30.5361C71.4701 30.5361 69.3533 28.8549 69.4081 25.9913C69.463 23.1278 71.9391 21.5415 71.9391 21.5415Z" fill="#F33540"/>
<path d="M64.9508 34.4607C64.9508 34.4607 63.4041 32.2397 64.2795 29.5118C65.1566 26.7844 67.9859 25.9798 67.9859 25.9798C67.9859 25.9798 69.1822 28.2366 68.285 31.0365C67.3862 33.8357 64.9508 34.4607 64.9508 34.4607Z" fill="#F33540"/>
<path d="M82.9381 12.7964C82.9381 12.7964 80.9972 11.2008 81.3579 8.28585C81.7169 5.37024 83.7556 3.82729 83.7556 3.82729C83.7556 3.82729 85.9793 5.75097 85.6265 8.59625C85.2755 11.4367 82.9381 12.7964 82.9381 12.7964Z" fill="#F33540"/>
<path d="M82.1406 24.6629C82.1406 24.6629 82.152 22.1453 84.6346 20.5861C87.1228 19.0271 89.6039 19.637 89.6039 19.637C89.6039 19.637 89.5198 22.5798 87.0951 24.0996C84.6697 25.621 82.1406 24.6629 82.1406 24.6629Z" fill="#F33540"/>
<path d="M78.0882 29.7803C78.0882 29.7803 78.6579 27.3301 81.43 26.3606C84.2024 25.3949 86.4858 26.5412 86.4858 26.5412C86.4858 26.5412 85.7486 29.3912 83.0472 30.3319C80.3458 31.2725 78.0882 29.7803 78.0882 29.7803Z" fill="#F33540"/>
<path d="M73.4483 33.5287C73.4483 33.5287 74.7332 31.3656 77.6699 31.2828C80.6105 31.1996 82.4383 32.9804 82.4383 32.9804C82.4383 32.9804 80.8721 35.4701 78.0105 35.5516C75.1465 35.6342 73.4483 33.5287 73.4483 33.5287Z" fill="#F33540"/>
<path d="M71.4644 35.0786C74.3898 35.3484 75.9981 37.3336 75.9981 37.3336C75.9981 37.3336 74.1489 39.6168 71.2946 39.3609C68.4434 39.0969 67.0103 36.8044 67.0103 36.8044C67.0103 36.8044 68.54 34.8109 71.4644 35.0786Z" fill="#F33540"/>
<path d="M82.0798 14.312L83.476 14.1834C83.4888 14.3356 84.6385 29.4873 62.1571 37.5341L61.6889 36.2158C83.0887 28.5521 82.1325 14.8879 82.0798 14.312Z" fill="#F33540"/>
</svg>
