<!-- Generated by IcoMoon.io -->
<svg version="1.1" xmlns="http://www.w3.org/2000/svg" width="72" height="32" viewBox="0 0 72 32">
<title>arrow-left</title>
<path d="M16.362 31.564c0.443 0.36 0.927 0.429 1.454 0.208s0.789-0.623 0.789-1.205v-9.302h51.827c0.388 0 0.706-0.124 0.955-0.374s0.374-0.568 0.374-0.955v-7.973c0-0.387-0.124-0.706-0.374-0.955s-0.568-0.373-0.955-0.373h-51.827v-9.302c0-0.554-0.264-0.956-0.79-1.204-0.527-0.222-1.011-0.138-1.454 0.248l-15.946 14.702c-0.277 0.277-0.415 0.608-0.415 0.996 0 0.359 0.139 0.677 0.416 0.954l15.946 14.535z"></path>
</svg>
