<?xml version="1.0" encoding="utf-8"?>
<!-- Generator: Adobe Illustrator 19.2.1, SVG Export Plug-In . SVG Version: 6.00 Build 0)  -->
<svg version="1.1" id="Layer_1" xmlns="http://www.w3.org/2000/svg" xmlns:xlink="http://www.w3.org/1999/xlink" x="0px" y="0px"
	 viewBox="0 0 13.3 17" style="enable-background:new 0 0 13.3 17;" xml:space="preserve">
<path d="M5.5,11.2c-0.5,2.1-1,4.2-2.7,5.8c0-1.1-0.1-2.1,0-3.2c0.1-1.2,0.5-2.3,0.7-3.5c0.3-1.2,0.5-2.3,0.3-3.5
	C3.8,6,4,5.3,4.3,4.6s1-1,1.8-0.7c0.7,0.3,1,1,0.9,1.7C6.7,6.5,6.5,7.3,6.2,8.2C6,9.1,5.9,10,6.8,10.5c1,0.5,1.7,0.2,2.5-0.4
	c1.4-1.4,2-4.7,1.2-6.4c-1-2-3.9-2.8-6.2-1.5C2.1,3.3,1.2,6,2.4,8.3c0.2,0.4,0.1,1,0.1,1.7c-1.4-0.3-2-1.1-2.2-2.1
	c-0.6-2.3,0-4.4,1.7-6c2.1-2,5.8-2.5,8.3-1.1c1.9,1.1,3.1,2.7,3.1,5c0,2.6-0.7,4.8-3.1,6.1C8.6,12.7,7,12.6,5.5,11.2z"/>
</svg>
