<?xml version="1.0" encoding="utf-8"?>
<!-- Generator: Adobe Illustrator 19.2.1, SVG Export Plug-In . SVG Version: 6.00 Build 0)  -->
<svg version="1.1" id="Layer_1" xmlns="http://www.w3.org/2000/svg" xmlns:xlink="http://www.w3.org/1999/xlink" x="0px" y="0px"
	 viewBox="0 0 17 16.1" style="enable-background:new 0 0 17 16.1;" xml:space="preserve">
<path d="M7.9,0c0.5,0,1,0,1.5,0c0.2,0.1,0.3,0.1,0.5,0.2c1.5,0.4,2.7,1.3,3.1,2.9c0.2,0.7,0.1,1.5,0.2,2.3c0,0.5,0.1,0.9,0.1,1.4
	c0.4-0.1,0.8-0.2,1.2-0.2c0.3,0,0.5,0.2,0.8,0.4c-0.2,0.2-0.3,0.5-0.5,0.7c-0.3,0.2-0.6,0.3-1,0.4c-0.6,0.2-0.8,0.7-0.5,1.3
	c0.7,1.4,1.6,2.4,3.1,2.9c0.2,0.1,0.4,0.2,0.7,0.3c-0.4,0.7-1.1,0.7-1.7,0.9c-0.3,0.1-0.7,0.3-0.8,0.5c-0.1,0.7-0.5,0.7-1,0.6
	c-0.9-0.2-1.7,0-2.4,0.5c-0.6,0.4-1.4,0.7-2,1.1c-0.4,0-0.8,0-1.2,0c-0.6-0.3-1.2-0.6-1.8-0.9c-0.9-0.6-1.8-0.9-2.8-0.6
	c-0.5,0.1-0.8,0-0.9-0.5c0-0.2-0.4-0.5-0.6-0.6c-0.3-0.2-0.7-0.2-1.1-0.3c-0.3-0.1-0.5-0.3-0.8-0.5c0-0.1,0.1-0.1,0.1-0.2
	c1.6-0.3,2.7-1.2,3.5-2.6C4.3,8.5,4.1,8.3,3,7.8C2.6,7.6,1.8,7.6,2,6.9s0.8-0.3,1.3-0.2c0.6,0.2,0.8,0.1,0.8-0.6s0-1.3,0-2
	c0-1.8,1.1-3.2,2.9-3.8C7.3,0.2,7.6,0.1,7.9,0z"/>
</svg>
